{
  "Banner": [
    {
      "name": "Adx",
      "URL": ""
    },
    {
      "name": "AdMob",
      "URL": ""
    },
    {
      "name": "Unity Ads",
      "URL": ""
    },
    {
      "name": "Facebook",
      "URL": ""
    }
  ],
  "Interstitial": [
    {
      "name": "Adx",
      "URL": ""
    },
    {
      "name": "Unity Ads",
      "URL": ""
    },
    {
      "name": "Facebook",
      "URL": ""
    }
  ],
  "RewardedVideo": [
    {
      "name": "Adx",
      "URL": ""
    },
    {
      "name": "Facebook",
      "URL": ""
    },
    {
      "name": "AdMob",
      "URL": ""
    },
    {
      "name": "Unity Ads",
      "URL": ""
    }
  ]
}