C:\Users\rok10\Documents\Programming\Projects\Java\AdMediation_Maven\src\main\java\adMediation\AdFilter.java
C:\Users\rok10\Documents\Programming\Projects\Java\AdMediation_Maven\src\main\java\adMediation\CacheHandler.java
C:\Users\rok10\Documents\Programming\Projects\Java\AdMediation_Maven\src\main\java\adMediation\AdProvider.java
C:\Users\rok10\Documents\Programming\Projects\Java\AdMediation_Maven\src\main\java\adMediation\AdMediationEngine.java
